{ "height":12,
 "layers":[
        {
         "data":[1, 1, 1, 1, 1, 1, 1, 1, 1, 1, 1, 1, 1, 1, 1, 1, 1, 1, 2, 2, 2, 1, 1, 1, 1, 1, 1, 1, 1, 1, 1, 2, 2, 1, 1, 1, 1, 1, 2, 2, 1, 1, 1, 2, 1, 1, 1, 1, 1, 2, 2, 2, 2, 1, 1, 1, 1, 1, 1, 1, 1, 1, 2, 2, 1, 1, 1, 1, 1, 4, 1, 1, 1, 1, 1, 1, 1, 1, 1, 1, 1, 4, 1, 1, 1, 4, 1, 1, 1, 1, 1, 1, 1, 1, 1, 1, 1, 4, 4, 1, 1, 1, 1, 4, 1, 1, 4, 1, 1, 1, 1, 1, 1, 1, 4, 4, 4, 1, 1, 1, 1, 1, 1, 1, 1, 1, 4, 4, 1, 1, 1, 1, 3, 3, 1, 1, 1, 1, 1, 1, 1, 4, 1, 1],
         "height":12,
         "name":"Tile Layer 1",
         "opacity":1,
         "type":"tilelayer",
         "visible":true,
         "width":12,
         "x":0,
         "y":0
        }, 
        {
         "draworder":"topdown",
         "height":12,
         "name":"players",
         "objects":[
                {
                 "height":0.181818181818187,
                 "id":1,
                 "name":"",
                 "rotation":0,
                 "type":"",
                 "visible":true,
                 "width":0,
                 "x":28.5454545454545,
                 "y":180.181818181818
                }, 
                {
                 "height":0.363636363636374,
                 "id":2,
                 "name":"",
                 "rotation":0,
                 "type":"",
                 "visible":true,
                 "width":0,
                 "x":16.7272727272727,
                 "y":176.727272727273
                }, 
                {
                 "height":16,
                 "id":3,
                 "name":"StartingLocation",
                 "rotation":0,
                 "type":"",
                 "visible":true,
                 "width":16,
                 "x":15.0909090909091,
                 "y":174.363636363636
                }, 
                {
                 "height":16,
                 "id":6,
                 "name":"endingLocation",
                 "rotation":0,
                 "type":"",
                 "visible":true,
                 "width":16,
                 "x":176,
                 "y":1.63636363636364
                }],
         "opacity":1,
         "type":"objectgroup",
         "visible":true,
         "width":12,
         "x":0,
         "y":0
        }, 
        {
         "draworder":"topdown",
         "height":12,
         "name":"boundaries",
         "objects":[
                {
                 "height":47.4545454545455,
                 "id":9,
                 "name":"",
                 "rotation":0,
                 "type":"",
                 "visible":true,
                 "width":30,
                 "x":33.6363636363636,
                 "y":47.6363636363636
                }, 
                {
                 "height":14.1818181818182,
                 "id":10,
                 "name":"",
                 "rotation":0,
                 "type":"",
                 "visible":true,
                 "width":58.5454545454545,
                 "x":18.1818181818182,
                 "y":64.5454545454545
                }, 
                {
                 "height":0,
                 "id":11,
                 "name":"",
                 "rotation":0,
                 "type":"",
                 "visible":true,
                 "width":19.0909090909091,
                 "x":16,
                 "y":141.272727272727
                }, 
                {
                 "height":0,
                 "id":12,
                 "name":"",
                 "rotation":0,
                 "type":"",
                 "visible":true,
                 "width":6.36363636363636,
                 "x":17.6363636363636,
                 "y":141.818181818182
                }, 
                {
                 "height":25.8181818181818,
                 "id":13,
                 "name":"",
                 "rotation":0,
                 "type":"",
                 "visible":true,
                 "width":12.1818181818182,
                 "x":18.7272727272727,
                 "y":116.363636363636
                }, 
                {
                 "height":4,
                 "id":14,
                 "name":"",
                 "rotation":0,
                 "type":"",
                 "visible":true,
                 "width":0,
                 "x":45.2727272727273,
                 "y":131.090909090909
                }, 
                {
                 "height":0,
                 "id":15,
                 "name":"",
                 "rotation":0,
                 "type":"",
                 "visible":true,
                 "width":5.27272727272727,
                 "x":97.0909090909091,
                 "y":172.545454545455
                }, 
                {
                 "height":0,
                 "id":16,
                 "name":"",
                 "rotation":0,
                 "type":"",
                 "visible":true,
                 "width":24.1818181818182,
                 "x":98.7272727272727,
                 "y":169.818181818182
                }, 
                {
                 "height":11.8181818181818,
                 "id":17,
                 "name":"",
                 "rotation":0,
                 "type":"",
                 "visible":true,
                 "width":43.6363636363636,
                 "x":97.6363636363636,
                 "y":18.3636363636364
                }, 
                {
                 "height":0,
                 "id":18,
                 "name":"",
                 "rotation":0,
                 "type":"",
                 "visible":true,
                 "width":10.5454545454545,
                 "x":111.636363636364,
                 "y":63.6363636363636
                }, 
                {
                 "height":20,
                 "id":19,
                 "name":"",
                 "rotation":0,
                 "type":"",
                 "visible":true,
                 "width":9.45454545454547,
                 "x":114.909090909091,
                 "y":35.6363636363636
                }, 
                {
                 "height":12.7272727272727,
                 "id":22,
                 "name":"",
                 "rotation":0,
                 "type":"",
                 "visible":true,
                 "width":14.1818181818182,
                 "x":131.090909090909,
                 "y":33.0909090909091
                }, 
                {
                 "height":0,
                 "id":23,
                 "name":"",
                 "rotation":0,
                 "type":"",
                 "visible":true,
                 "width":8.36363636363636,
                 "x":98,
                 "y":172.545454545455
                }, 
                {
                 "height":0,
                 "id":24,
                 "name":"",
                 "rotation":0,
                 "type":"",
                 "visible":true,
                 "width":4.72727272727272,
                 "x":97.8181818181818,
                 "y":173.818181818182
                }, 
                {
                 "height":0,
                 "id":25,
                 "name":"",
                 "rotation":0,
                 "type":"",
                 "visible":true,
                 "width":5.81818181818181,
                 "x":100.727272727273,
                 "y":167.454545454545
                }, 
                {
                 "height":41.2727272727273,
                 "id":26,
                 "name":"",
                 "rotation":0,
                 "type":"",
                 "visible":true,
                 "width":10.9090909090909,
                 "x":115.818181818182,
                 "y":132.909090909091
                }, 
                {
                 "height":12.9090909090909,
                 "id":31,
                 "name":"",
                 "rotation":0,
                 "type":"",
                 "visible":true,
                 "width":46.9090909090909,
                 "x":97.4545454545455,
                 "y":145.818181818182
                }, 
                {
                 "height":0,
                 "id":32,
                 "name":"",
                 "rotation":0,
                 "type":"",
                 "visible":true,
                 "width":9.63636363636363,
                 "x":98.7272727272727,
                 "y":173.454545454545
                }, 
                {
                 "height":0,
                 "id":33,
                 "name":"",
                 "rotation":0,
                 "type":"",
                 "visible":true,
                 "width":9.09090909090909,
                 "x":95.4545454545455,
                 "y":173.818181818182
                }, 
                {
                 "height":31.6363636363636,
                 "id":34,
                 "name":"",
                 "rotation":0,
                 "type":"",
                 "visible":true,
                 "width":13.8181818181818,
                 "x":146,
                 "y":80.5454545454545
                }, 
                {
                 "height":2.90909090909091,
                 "id":35,
                 "name":"",
                 "rotation":0,
                 "type":"",
                 "visible":true,
                 "width":0.909090909090907,
                 "x":175.272727272727,
                 "y":142.363636363636
                }, 
                {
                 "height":16.3636363636363,
                 "id":36,
                 "name":"",
                 "rotation":0,
                 "type":"",
                 "visible":true,
                 "width":14,
                 "x":161.636363636364,
                 "y":128.545454545455
                }, 
                {
                 "height":0,
                 "id":37,
                 "name":"",
                 "rotation":0,
                 "type":"",
                 "visible":true,
                 "width":7.27272727272728,
                 "x":147.272727272727,
                 "y":190.545454545455
                }, 
                {
                 "height":8.36363636363635,
                 "id":38,
                 "name":"",
                 "rotation":0,
                 "type":"",
                 "visible":true,
                 "width":0,
                 "x":156.545454545455,
                 "y":179.454545454545
                }, 
                {
                 "height":0,
                 "id":39,
                 "name":"",
                 "rotation":0,
                 "type":"",
                 "visible":true,
                 "width":0.36363636363636,
                 "x":112.545454545455,
                 "y":60.1818181818182
                }, 
                {
                 "height":0,
                 "id":40,
                 "name":"",
                 "rotation":0,
                 "type":"",
                 "visible":true,
                 "width":4.90909090909091,
                 "x":113.818181818182,
                 "y":61.8181818181818
                }, 
                {
                 "height":29.2727272727273,
                 "id":41,
                 "name":"",
                 "rotation":0,
                 "type":"",
                 "visible":true,
                 "width":13.4545454545455,
                 "x":113.272727272727,
                 "y":31.6363636363636
                }],
         "opacity":1,
         "type":"objectgroup",
         "visible":true,
         "width":12,
         "x":0,
         "y":0
        }],
 "nextobjectid":42,
 "orientation":"orthogonal",
 "renderorder":"right-up",
 "tileheight":16,
 "tilesets":[
        {
         "columns":2,
         "firstgid":1,
         "image":"map.png",
         "imageheight":38,
         "imagewidth":38,
         "margin":2,
         "name":"map",
         "spacing":2,
         "tilecount":4,
         "tileheight":16,
         "tilewidth":16
        }],
 "tilewidth":16,
 "version":1,
 "width":12
}